
<svg version="1.1" id="Layer_1" xmlns="http://www.w3.org/2000/svg" xmlns:xlink="http://www.w3.org/1999/xlink" x="0px" y="0px"
	 viewBox="0 0 108.5 113.3" style="enable-background:new 0 0 108.5 113.3;" xml:space="preserve">
<style type="text/css">
	.st0{fill:#FFFFFF;}
	.st1{fill:#FF8533;stroke:#FF8533;stroke-width:3;stroke-miterlimit:10;}
	.st2{fill:#8EBDD9;}
	.st3{opacity:0.3;clip-path:url(#SVGID_2_);}
	.st4{fill:url(#SVGID_3_);}
	.st5{fill:url(#SVGID_4_);}
	.st6{fill:url(#SVGID_5_);}
	.st7{fill:url(#SVGID_6_);}
	.st8{fill:url(#SVGID_7_);}
	.st9{fill:url(#SVGID_8_);}
	.st10{fill:url(#SVGID_9_);}
	.st11{fill:url(#SVGID_10_);}
	.st12{fill:url(#SVGID_11_);}
	.st13{fill:url(#SVGID_12_);}
	.st14{fill:url(#SVGID_13_);}
	.st15{fill:url(#SVGID_14_);}
	.st16{fill:url(#SVGID_15_);}
	.st17{clip-path:url(#SVGID_17_);}
	.st18{fill:#006993;}
	.st19{fill:#003E56;}
	.st20{fill:#E0E0E0;}
	.st21{clip-path:url(#SVGID_19_);fill:#8EBDD9;}
	.st22{fill:none;}
	.st23{fill:#B24C26;}
</style>
<g>
	<g>
		<path class="st0" d="M55.2,111.7c-2.4,0-4.7-0.6-6.8-1.8L10.9,89.1C6.5,86.6,3.7,82,3.7,76.9V22c0-5.9,3.7-11.2,9.3-13.1
			c14-5,28.2-7.5,42.1-7.5C69,1.3,83,3.8,96.8,8.8c5.5,2,9.2,7.3,9.2,13.1v55c0,5-2.7,9.7-7.1,12.1l-37,20.8
			C59.9,111.1,57.5,111.7,55.2,111.7z"/>
		<path class="st0" d="M55.1,109.4c-2,0-3.9-0.5-5.7-1.5L12,87.1c-3.7-2.1-6-6-6-10.2V22c0-4.9,3.1-9.4,7.8-11
			c13.7-5,27.6-7.5,41.3-7.5c13.6,0,27.4,2.5,41,7.4c4.6,1.7,7.8,6.1,7.8,11v55c0,4.2-2.3,8.1-6,10.2l-37,20.8
			C59.1,108.9,57.2,109.4,55.1,109.4z"/>
		<path class="st0" d="M55.1,107.7c-1.7,0-3.4-0.4-4.8-1.3L12.8,85.6c-3.2-1.8-5.1-5.1-5.1-8.7V22c0-4.2,2.7-8,6.7-9.4
			C28,7.8,41.7,5.3,55.2,5.3c13.4,0,27,2.4,40.4,7.3c4,1.4,6.6,5.2,6.6,9.4v55c0,3.6-1.9,6.9-5.1,8.7l-37,20.8
			C58.6,107.3,56.9,107.7,55.1,107.7z"/>
		<path class="st1" d="M55.2,106.8c-1.4,0-2.8-0.4-4.1-1.1L13,84.6c-2.7-1.5-4.3-4.3-4.3-7.3V21.4c0-3.5,2.3-6.7,5.6-7.9
			c13.6-4.9,27.3-7.3,40.8-7.3c13.4,0,27,2.4,40.4,7.3c3.3,1.2,5.6,4.4,5.6,7.9v55.9c0,3-1.6,5.8-4.3,7.3l-37.5,21.1
			C58,106.4,56.6,106.8,55.2,106.8z"/>
		<g>
			<path class="st2" d="M94.3,15.7c-13-4.7-26.2-7.1-39.2-7.1C42,8.6,28.7,11,15.5,15.7c-2.6,0.9-4.4,3.4-4.4,6.2v37.4v17.6
				c0,2.4,1.3,4.6,3.4,5.7L52,103.5c1,0.5,2.1,0.8,3.2,0.8c1.1,0,2.2-0.3,3.2-0.8l37-20.8c2.1-1.2,3.3-3.4,3.3-5.7V58.9v-37
				C98.7,19.2,96.9,16.7,94.3,15.7z"/>
			<path class="st2" d="M94.3,15.7c-13-4.7-26.2-7.1-39.2-7.1C42,8.6,28.7,11,15.5,15.7c-2.6,0.9-4.4,3.4-4.4,6.2v37.4v17.6
				c0,2.4,1.3,4.6,3.4,5.7L52,103.5c1,0.5,2.1,0.8,3.2,0.8c1.1,0,2.2-0.3,3.2-0.8l37-20.8c2.1-1.2,3.3-3.4,3.3-5.7V58.9v-37
				C98.7,19.2,96.9,16.7,94.3,15.7z"/>
		</g>
		<g>
			<g>
				<defs>
					<path id="SVGID_1_" d="M55.1,104.3c-1.1,0-2.2-0.3-3.2-0.8L14.5,82.7c-2.1-1.2-3.4-3.4-3.4-5.7V22c0-2.8,1.8-5.3,4.4-6.2
						C28.7,11.1,42,8.7,55.1,8.7c13,0,26.2,2.4,39.2,7.1c2.6,0.9,4.4,3.4,4.4,6.2v55c0,2.4-1.3,4.6-3.3,5.7l-37,20.8
						C57.4,104,56.3,104.3,55.1,104.3z"/>
				</defs>
				<clipPath id="SVGID_2_">
					<use xlink:href="#SVGID_1_"  style="overflow:visible;"/>
				</clipPath>
				<g class="st3">

						<linearGradient id="SVGID_3_" gradientUnits="userSpaceOnUse" x1="55.3875" y1="83.4" x2="55.3875" y2="103.5946" gradientTransform="matrix(1 0 0 -1 0 116)">
						<stop  offset="0" style="stop-color:#FFFFFF;stop-opacity:0"/>
						<stop  offset="1" style="stop-color:#FFFFFF"/>
					</linearGradient>
					<path class="st4" d="M56.2,13.2l-0.4,19c0,0.2-0.2,0.4-0.4,0.4s-0.3-0.2-0.3-0.4c-0.1-3.5-0.1-7-0.2-10.5
						c0-1.8-0.1-3.6-0.2-5.4c0-0.8-0.5-3.5,0.5-3.8C55.7,12.3,56.2,12.7,56.2,13.2L56.2,13.2z"/>

						<linearGradient id="SVGID_4_" gradientUnits="userSpaceOnUse" x1="-19.9447" y1="103.5965" x2="-19.9447" y2="118.719" gradientTransform="matrix(0.9247 -0.3807 -0.2719 -0.6605 97.4045 88.6646)">
						<stop  offset="0" style="stop-color:#FFFFFF;stop-opacity:0"/>
						<stop  offset="1" style="stop-color:#FFFFFF"/>
					</linearGradient>
					<path class="st5" d="M47.6,18c0.4,0.5,0.5,1.3,0.6,1.9c0.5,1.8,1,3.6,1.5,5.3c0.2,0.8,0.4,1.7,0.7,2.5c0,0.1,0,0.3-0.2,0.3
						c-0.1,0.1-0.3,0-0.3-0.1c-1.1-3.1-2.3-6.2-3.4-9.3c-0.1-0.1-0.1-0.3-0.1-0.5c0.1-0.2,0.2-0.4,0.5-0.5
						C47.2,17.7,47.4,17.8,47.6,18z"/>

						<linearGradient id="SVGID_5_" gradientUnits="userSpaceOnUse" x1="-38.869" y1="222.6833" x2="-38.869" y2="234.9502" gradientTransform="matrix(0.886 -0.4637 -0.5966 -1.1398 211.5623 265.7531)">
						<stop  offset="0" style="stop-color:#FFFFFF;stop-opacity:0"/>
						<stop  offset="1" style="stop-color:#FFFFFF"/>
					</linearGradient>
					<path class="st6" d="M38.1,16.7c1,1.2,1.6,2.9,2.3,4.3c1.3,2.8,2.7,5.5,4.1,8.3c0.1,0.3,0.1,0.6-0.1,0.7
						c-0.2,0.1-0.4,0-0.6-0.3c-2.3-3.9-4.5-7.9-6.8-11.8c-0.1-0.3-0.3-0.5-0.4-0.8c-0.1-0.5,0.1-1,0.4-1.1
						C37.3,15.8,37.7,16.2,38.1,16.7z"/>

						<linearGradient id="SVGID_6_" gradientUnits="userSpaceOnUse" x1="-81.2565" y1="282.2838" x2="-81.2565" y2="301.3971" gradientTransform="matrix(0.6364 -0.7713 -0.7713 -0.6364 305.923 152.6013)">
						<stop  offset="0" style="stop-color:#FFFFFF;stop-opacity:0"/>
						<stop  offset="1" style="stop-color:#FFFFFF"/>
					</linearGradient>
					<path class="st7" d="M22.8,23.4l13.9,11.4c0.1,0.1,0.2,0.4,0,0.5c-0.1,0.1-0.3,0.2-0.5,0L21.9,24.6c-0.3-0.3-0.4-0.8-0.1-1.1
						S22.4,23.1,22.8,23.4L22.8,23.4z"/>

						<linearGradient id="SVGID_7_" gradientUnits="userSpaceOnUse" x1="-87.1811" y1="311.7004" x2="-87.1811" y2="321.4342" gradientTransform="matrix(0.535 -0.8449 -0.8449 -0.535 340.9091 130.3701)">
						<stop  offset="0" style="stop-color:#FFFFFF;stop-opacity:0"/>
						<stop  offset="1" style="stop-color:#FFFFFF"/>
					</linearGradient>
					<path class="st8" d="M23.6,31.9l7.3,4.9c0.1,0.1,0.2,0.3,0.1,0.4c-0.1,0.1-0.3,0.2-0.4,0.1L23,33c-0.3-0.2-0.4-0.6-0.2-0.9
						C22.8,31.8,23.2,31.7,23.6,31.9C23.5,31.9,23.6,31.9,23.6,31.9z"/>

						<linearGradient id="SVGID_8_" gradientUnits="userSpaceOnUse" x1="-92.2774" y1="347.3761" x2="-92.2774" y2="361.1651" gradientTransform="matrix(0.406 -0.9139 -0.9139 -0.406 381.974 97.7932)">
						<stop  offset="0" style="stop-color:#FFFFFF;stop-opacity:0"/>
						<stop  offset="1" style="stop-color:#FFFFFF"/>
					</linearGradient>
					<path class="st9" d="M15.7,35l11.2,5.3c0.2,0.1,0.3,0.4,0.2,0.6c-0.1,0.2-0.3,0.3-0.6,0.2L15,36.8c-0.5-0.2-0.7-0.8-0.5-1.3
						S15.2,34.7,15.7,35L15.7,35z"/>

						<linearGradient id="SVGID_9_" gradientUnits="userSpaceOnUse" x1="-62.4896" y1="224.1613" x2="-62.4896" y2="234.1238" gradientTransform="matrix(0.7737 -0.6335 -0.6335 -0.7737 228.7473 164.8913)">
						<stop  offset="0" style="stop-color:#FFFFFF;stop-opacity:0"/>
						<stop  offset="1" style="stop-color:#FFFFFF"/>
					</linearGradient>
					<path class="st10" d="M33,23.4l5.5,7c0.1,0.1,0.1,0.3,0,0.4s-0.3,0.1-0.4-0.1L32,24.3c-0.2-0.3-0.2-0.7,0.1-1
						C32.4,23.1,32.8,23.1,33,23.4L33,23.4z"/>

						<linearGradient id="SVGID_10_" gradientUnits="userSpaceOnUse" x1="455.9756" y1="-170.7476" x2="455.9756" y2="-155.625" gradientTransform="matrix(-0.9247 -0.3807 0.2719 -0.6605 527.7644 88.6646)">
						<stop  offset="0" style="stop-color:#FFFFFF;stop-opacity:0"/>
						<stop  offset="1" style="stop-color:#FFFFFF"/>
					</linearGradient>
					<path class="st11" d="M62.9,18c-0.4,0.5-0.5,1.3-0.6,1.9c-0.5,1.8-1,3.6-1.5,5.3c-0.2,0.8-0.4,1.7-0.7,2.5c0,0.1,0,0.3,0.2,0.3
						c0.1,0.1,0.3,0,0.3-0.1c1.1-3.1,2.3-6.2,3.4-9.3c0.1-0.1,0.1-0.3,0.1-0.5c-0.1-0.2-0.2-0.4-0.5-0.5C63.3,17.7,63,17.8,62.9,18z
						"/>

						<linearGradient id="SVGID_11_" gradientUnits="userSpaceOnUse" x1="417.1984" y1="37.1457" x2="417.1984" y2="49.4127" gradientTransform="matrix(-0.886 -0.4637 0.5966 -1.1398 413.6066 265.7531)">
						<stop  offset="0" style="stop-color:#FFFFFF;stop-opacity:0"/>
						<stop  offset="1" style="stop-color:#FFFFFF"/>
					</linearGradient>
					<path class="st12" d="M72.3,16.7c-1,1.2-1.6,2.9-2.3,4.3c-1.3,2.8-2.7,5.5-4.1,8.3c-0.1,0.3-0.1,0.6,0.1,0.7s0.4,0,0.6-0.3
						c2.3-3.9,4.5-7.9,6.8-11.8c0.1-0.3,0.3-0.5,0.4-0.8c0.1-0.5-0.1-1-0.4-1.1C73.1,15.8,72.7,16.2,72.3,16.7z"/>

						<linearGradient id="SVGID_12_" gradientUnits="userSpaceOnUse" x1="246.3207" y1="-114.7623" x2="246.3207" y2="-95.649" gradientTransform="matrix(-0.6364 -0.7713 0.7713 -0.6364 319.2459 152.6013)">
						<stop  offset="0" style="stop-color:#FFFFFF;stop-opacity:0"/>
						<stop  offset="1" style="stop-color:#FFFFFF"/>
					</linearGradient>
					<path class="st13" d="M87.6,23.4L73.8,34.8c-0.1,0.1-0.2,0.4,0,0.5c0.1,0.1,0.3,0.2,0.5,0l14.4-10.8c0.3-0.3,0.4-0.8,0.1-1.1
						C88.5,23.2,88,23.1,87.6,23.4C87.7,23.4,87.6,23.4,87.6,23.4z"/>

						<linearGradient id="SVGID_13_" gradientUnits="userSpaceOnUse" x1="188.1445" y1="-123.1866" x2="188.1445" y2="-113.4528" gradientTransform="matrix(-0.535 -0.8449 0.8449 -0.535 284.2598 130.3701)">
						<stop  offset="0" style="stop-color:#FFFFFF;stop-opacity:0"/>
						<stop  offset="1" style="stop-color:#FFFFFF"/>
					</linearGradient>
					<path class="st14" d="M86.9,31.9l-7.3,4.9c-0.1,0.1-0.2,0.3-0.1,0.4c0.1,0.1,0.3,0.2,0.4,0.1l7.6-4.3c0.3-0.2,0.4-0.6,0.2-0.9
						C87.6,31.8,87.2,31.7,86.9,31.9L86.9,31.9z"/>

						<linearGradient id="SVGID_14_" gradientUnits="userSpaceOnUse" x1="116.7342" y1="-123.0388" x2="116.7342" y2="-109.2498" gradientTransform="matrix(-0.406 -0.9139 0.9139 -0.406 243.1949 97.7932)">
						<stop  offset="0" style="stop-color:#FFFFFF;stop-opacity:0"/>
						<stop  offset="1" style="stop-color:#FFFFFF"/>
					</linearGradient>
					<path class="st15" d="M94.7,35l-11.2,5.3c-0.2,0.1-0.3,0.4-0.2,0.6c0.1,0.2,0.3,0.3,0.6,0.2l11.6-4.4c0.5-0.2,0.7-0.8,0.5-1.3
						S95.2,34.7,94.7,35C94.8,35,94.7,35,94.7,35z"/>

						<linearGradient id="SVGID_15_" gradientUnits="userSpaceOnUse" x1="335.8753" y1="-101.9509" x2="335.8753" y2="-91.9885" gradientTransform="matrix(-0.7737 -0.6335 0.6335 -0.7737 396.4215 164.8913)">
						<stop  offset="0" style="stop-color:#FFFFFF;stop-opacity:0"/>
						<stop  offset="1" style="stop-color:#FFFFFF"/>
					</linearGradient>
					<path class="st16" d="M77.4,23.4l-5.5,7c-0.1,0.1-0.1,0.3,0,0.4s0.3,0.1,0.4-0.1l6.1-6.6c0.2-0.3,0.2-0.7-0.1-1
						S77.7,23.1,77.4,23.4L77.4,23.4z"/>
				</g>
			</g>
			<g>
				<defs>
					<path id="SVGID_16_" d="M55.1,104.3c-1.1,0-2.2-0.3-3.2-0.8L14.5,82.7c-2.1-1.2-3.4-3.4-3.4-5.7V22c0-2.8,1.8-5.3,4.4-6.2
						C28.7,11.1,42,8.7,55.1,8.7c13,0,26.2,2.4,39.2,7.1c2.6,0.9,4.4,3.4,4.4,6.2v55c0,2.4-1.3,4.6-3.3,5.7l-37,20.8
						C57.4,104,56.3,104.3,55.1,104.3z"/>
				</defs>
				<clipPath id="SVGID_17_">
					<use xlink:href="#SVGID_16_"  style="overflow:visible;"/>
				</clipPath>
				<g class="st17">
					<g id="XMLID_4_">
						<g>
							<polygon class="st18" points="100.4,60.6 12.6,60.6 32.2,44.7 33.7,37.4 39.1,33.7 39.1,30.8 45.4,35.4 45.4,35.3 51.2,39.8
								58.2,30.5 63.3,26.8 62,19.9 							"/>
							<polygon class="st19" points="62.1,20.8 65.2,31.6 56.8,34.9 51.2,39.8 45.4,35.3 62,19.9 							"/>
						</g>
					</g>
					<polygon class="st19" points="39.1,30.8 39.8,33.3 39.6,35.8 38.3,39.5 34.1,46.8 24.4,53.7 19.5,60.6 14.4,60.6 6,64 					"/>
					<polygon class="st0" points="39.2,31.4 54.1,42.7 47.5,39.7 50,42.9 41.5,37.4 39.1,35.5 39.6,33.3 					"/>
					<polygon class="st0" points="65.1,31.8 63.3,26.8 62.2,24.5 62.5,23.1 62,20.8 87,47.4 77.2,38.1 82.1,45.4 69.5,33.8 74,40.4
						67.5,34.8 					"/>
					<polygon class="st20" points="62.7,27.1 63.3,26.8 62.2,24.5 62.7,23.1 62,20.8 47.9,34.1 57,27.1 54.1,30.3 60,25.8
						54.3,32.3 61,27.1 59.4,29.2 					"/>
					<polygon class="st20" points="39.2,31.3 30.8,39.8 35.6,36.6 34.7,38.5 39.6,35.8 39.6,33.3 					"/>
				</g>
			</g>
			<g>
				<defs>
					<path id="SVGID_18_" d="M55.1,104.3c-1.1,0-2.2-0.3-3.2-0.8L14.5,82.7c-2.1-1.2-3.4-3.4-3.4-5.7V22c0-2.8,1.8-5.3,4.4-6.2
						C28.7,11.1,42,8.7,55.1,8.7c13,0,26.2,2.4,39.2,7.1c2.6,0.9,4.4,3.4,4.4,6.2v55c0,2.4-1.3,4.6-3.3,5.7l-37,20.8
						C57.4,104,56.3,104.3,55.1,104.3z"/>
				</defs>
				<clipPath id="SVGID_19_">
					<use xlink:href="#SVGID_18_"  style="overflow:visible;"/>
				</clipPath>
				<path class="st21" d="M2.2,62.5c0,0,51.5-14.4,105,0v29.3l-56.5,37.5L0,83L2.2,62.5z"/>
			</g>
		</g>
		<path class="st22" d="M55.2,105c-1.1,0-2.2-0.3-3.2-0.8L14,83c-2.1-1.2-3.4-3.4-3.4-5.8V21.5c0-2.8,1.8-5.3,4.5-6.3
			C28.4,10.4,41.8,8,55.1,8c13.2,0,26.6,2.4,39.7,7.2c2.7,1,4.4,3.5,4.4,6.3v55.8c0,2.4-1.3,4.6-3.4,5.8l-37.4,21.1
			C57.4,104.7,56.3,105,55.2,105z"/>
	</g>
	<path class="st23" d="M87,87.7c-0.6-12.5-5.4-17.5-23.1-18.3c-1.8-0.1-3.6,0-5.4-0.1c-3.1,0-6.1-0.1-9.2-0.3
		c-3.1-0.2-6.3-0.4-9.4-0.9c-2-0.3-4.5-0.7-6.1-2c-1.4-1.1-0.7-3,0.2-4.2c1-1.5,2.6-2.5,4.2-3.4c1.5-0.8,2.7-1.4,4.2-2.1
		c-0.1,0-0.3,0-0.4,0c-0.6,0-1.1,0-1.7,0.1c-2.4,0.9-5.1,1.9-7.1,3.4c-1.8,1.3-3.4,3.3-3.5,5.6c-0.3,5.8,7.3,8.1,11.6,9.3
		c5.7,1.6,11.5,2.6,17.3,3.6c0.8,0.2,1.5,0.3,2.3,0.5c2.1,0.6,4.2,1.6,5.9,2.9c3.1,2.3,5.6,10.9,3.3,15C76.1,93.6,81.5,90.6,87,87.7
		z"/>
</g>
</svg>
